{
   "content_type":"text",
   "id":64,
   "message_id":64,
   "fro
m_user":{
      "id":1664758714,
      "is_bot":false,
      "first_name":"Asiri",
      "username":"asirihewage",
      "last_name":"H",
      "language_code":"en",
      "can_join_groups":"None",
      "can_read_all_group_messag
es":"None",
      "supports_inline_queries":"None"
   },
   "date":1632940503,
   "chat":{
      "id":1664758714,
      "type":"private",
      "title":"None",
      "username":"asirihewage",
      "first_name":"Asiri",
      "last_name":"H",
      "photo":"None",
      "bio":"None",
      "description":"None",
      "invite_link":"None",
      "pinned_message":"None",
      "permissions":"None",
      "slow_mode_delay":"None",
      "message_auto_delete_time":"None",
      "stick
er_set_name":"None",
      "can_set_sticker_set":"None",
      "linked_chat_id":"None",
      "location":"None"
   },
   "sender_chat":"None",
   "forward_from":"None",
   "forward_from_chat":"None",
   "forward_from_message_id":"None",
   "forward_signature":"None",
   "forward_sender_name":"None",
   "forward_date":"None",
   "reply_to_message":"None",
   "via_bot":"None",
   "edit_date":"None",
   "media_group_id":"None",
   "author_signatu
re":"None",
   "text":"/ado",
   "entities":[
      <telebot.types.MessageEntity object at 0x7f0a3da18c10>
   ],
   "caption_entities":"None",
   "audio":"None",
   "document":"None",
   "photo":"None",
   "sticker":"None",
   "video":"None",
   "video_note":"None",
   "voice":"None",
   "caption":"None",
   "contact":"None",
   "location":"None",
   "venue":"None",
   "animation":"None",
   "dice":"None",
   "new_chat_member":"None",
   "new_chat_m
embers":"None",
   "left_chat_member":"None",
   "new_chat_title":"None",
   "new_chat_photo":"None",
   "delete_chat_photo":"None",
   "group_chat_created":"None",
   "supergroup_chat_created":"None",
   "channel_c
hat_created":"None",
   "migrate_to_chat_id":"None",
   "migrate_from_chat_id":"None",
   "pinned_message":"None",
   "invoice":"None",
   "successful_payment":"None",
   "connected_website":"None",
   "reply_markup
":"None",
   "json":{
      "message_id":64,
      "from":{
         "id":1664758714,
         "is_bot":false,
         "first_name":"Asiri",
         "last_name":"H",
         "username":"asirihewage",
         "language_code":"en"
      },
      "chat":{
         "id":1664758714,
         "first_name":"Asiri",
         "last_name":"H",
         "username":"asirihewage",
         "type":"private"
      },
      "date":1632940503,
      "text":"/ado",
      "entities":[
         {
            "offset":0,
            "length":4,
            "type":"bo
t_command"
         }
      ]
   }
}